br/com/desafio/config/WebConfigurer.class
br/com/desafio/ApplicationWebXml.class
br/com/desafio/domain/AbstractAuditingEntity.class
br/com/desafio/security/AuthoritiesConstants.class
br/com/desafio/web/rest/errors/EmailNotFoundException.class
br/com/desafio/config/AsyncConfiguration.class
br/com/desafio/security/SecurityUtils.class
br/com/desafio/DesafioApp.class
br/com/desafio/web/rest/errors/ErrorConstants.class
br/com/desafio/config/DefaultProfileUtil.class
br/com/desafio/config/DateTimeFormatConfiguration.class
br/com/desafio/web/rest/vm/LoggerVM.class
br/com/desafio/web/rest/errors/ExceptionTranslator.class
br/com/desafio/web/rest/errors/InternalServerErrorException.class
br/com/desafio/web/rest/errors/BadRequestAlertException.class
br/com/desafio/web/rest/errors/InvalidPasswordException.class
br/com/desafio/config/MetricsConfiguration.class
br/com/desafio/security/jwt/JWTConfigurer.class
br/com/desafio/config/DatabaseConfiguration.class
br/com/desafio/config/CacheConfiguration.class
br/com/desafio/config/FeignConfiguration.class
br/com/desafio/web/rest/errors/EmailAlreadyUsedException.class
br/com/desafio/web/rest/util/HeaderUtil.class
br/com/desafio/config/JacksonConfiguration.class
br/com/desafio/config/LoggingAspectConfiguration.class
br/com/desafio/config/audit/AuditEventConverter.class
br/com/desafio/web/rest/errors/CustomParameterizedException.class
br/com/desafio/security/jwt/TokenProvider.class
br/com/desafio/aop/logging/LoggingAspect.class
br/com/desafio/web/rest/LogsResource.class
br/com/desafio/domain/PersistentAuditEvent.class
br/com/desafio/web/rest/errors/FieldErrorVM.class
br/com/desafio/config/ApplicationProperties.class
br/com/desafio/config/LoggingConfiguration.class
br/com/desafio/client/UserFeignClientInterceptor.class
br/com/desafio/web/rest/util/PaginationUtil.class
br/com/desafio/config/Constants.class
br/com/desafio/security/jwt/JWTFilter.class
br/com/desafio/config/SecurityConfiguration.class
br/com/desafio/config/LoggingConfiguration$LogbackLoggerContextListener.class
br/com/desafio/config/LocaleConfiguration.class
br/com/desafio/config/CloudDatabaseConfiguration.class
br/com/desafio/web/rest/errors/LoginAlreadyUsedException.class
br/com/desafio/security/SpringSecurityAuditorAware.class
