/Users/alyssonalves/eclipse-workspace/desafio/src/main/java/br/com/desafio/repository/package-info.java
/Users/alyssonalves/eclipse-workspace/desafio/src/main/java/br/com/desafio/domain/package-info.java
/Users/alyssonalves/eclipse-workspace/desafio/src/main/java/br/com/desafio/config/MetricsConfiguration.java
/Users/alyssonalves/eclipse-workspace/desafio/src/main/java/br/com/desafio/config/DefaultProfileUtil.java
/Users/alyssonalves/eclipse-workspace/desafio/src/main/java/br/com/desafio/security/jwt/JWTConfigurer.java
/Users/alyssonalves/eclipse-workspace/desafio/src/main/java/br/com/desafio/web/rest/errors/LoginAlreadyUsedException.java
/Users/alyssonalves/eclipse-workspace/desafio/src/main/java/br/com/desafio/security/AuthoritiesConstants.java
/Users/alyssonalves/eclipse-workspace/desafio/src/main/java/br/com/desafio/aop/logging/LoggingAspect.java
/Users/alyssonalves/eclipse-workspace/desafio/src/main/java/br/com/desafio/web/rest/errors/InternalServerErrorException.java
/Users/alyssonalves/eclipse-workspace/desafio/src/main/java/br/com/desafio/web/rest/errors/InvalidPasswordException.java
/Users/alyssonalves/eclipse-workspace/desafio/src/main/java/br/com/desafio/web/rest/errors/ExceptionTranslator.java
/Users/alyssonalves/eclipse-workspace/desafio/src/main/java/br/com/desafio/security/jwt/TokenProvider.java
/Users/alyssonalves/eclipse-workspace/desafio/src/main/java/br/com/desafio/web/rest/util/HeaderUtil.java
/Users/alyssonalves/eclipse-workspace/desafio/src/main/java/br/com/desafio/web/rest/errors/package-info.java
/Users/alyssonalves/eclipse-workspace/desafio/src/main/java/br/com/desafio/config/LoggingAspectConfiguration.java
/Users/alyssonalves/eclipse-workspace/desafio/src/main/java/br/com/desafio/config/DatabaseConfiguration.java
/Users/alyssonalves/eclipse-workspace/desafio/src/main/java/br/com/desafio/security/SecurityUtils.java
/Users/alyssonalves/eclipse-workspace/desafio/src/main/java/br/com/desafio/web/rest/util/PaginationUtil.java
/Users/alyssonalves/eclipse-workspace/desafio/src/main/java/br/com/desafio/config/FeignConfiguration.java
/Users/alyssonalves/eclipse-workspace/desafio/src/main/java/br/com/desafio/web/rest/errors/EmailAlreadyUsedException.java
/Users/alyssonalves/eclipse-workspace/desafio/src/main/java/br/com/desafio/config/package-info.java
/Users/alyssonalves/eclipse-workspace/desafio/src/main/java/br/com/desafio/config/LocaleConfiguration.java
/Users/alyssonalves/eclipse-workspace/desafio/src/main/java/br/com/desafio/client/UserFeignClientInterceptor.java
/Users/alyssonalves/eclipse-workspace/desafio/src/main/java/br/com/desafio/security/SpringSecurityAuditorAware.java
/Users/alyssonalves/eclipse-workspace/desafio/src/main/java/br/com/desafio/security/package-info.java
/Users/alyssonalves/eclipse-workspace/desafio/src/main/java/br/com/desafio/config/CloudDatabaseConfiguration.java
/Users/alyssonalves/eclipse-workspace/desafio/src/main/java/br/com/desafio/web/rest/errors/EmailNotFoundException.java
/Users/alyssonalves/eclipse-workspace/desafio/src/main/java/br/com/desafio/web/rest/package-info.java
/Users/alyssonalves/eclipse-workspace/desafio/src/main/java/br/com/desafio/web/rest/errors/ErrorConstants.java
/Users/alyssonalves/eclipse-workspace/desafio/src/main/java/br/com/desafio/config/audit/AuditEventConverter.java
/Users/alyssonalves/eclipse-workspace/desafio/src/main/java/br/com/desafio/web/rest/LogsResource.java
/Users/alyssonalves/eclipse-workspace/desafio/src/main/java/br/com/desafio/security/jwt/JWTFilter.java
/Users/alyssonalves/eclipse-workspace/desafio/src/main/java/br/com/desafio/domain/PersistentAuditEvent.java
/Users/alyssonalves/eclipse-workspace/desafio/src/main/java/br/com/desafio/config/DateTimeFormatConfiguration.java
/Users/alyssonalves/eclipse-workspace/desafio/src/main/java/br/com/desafio/ApplicationWebXml.java
/Users/alyssonalves/eclipse-workspace/desafio/src/main/java/br/com/desafio/config/AsyncConfiguration.java
/Users/alyssonalves/eclipse-workspace/desafio/src/main/java/br/com/desafio/config/dbmigrations/package-info.java
/Users/alyssonalves/eclipse-workspace/desafio/src/main/java/br/com/desafio/config/ApplicationProperties.java
/Users/alyssonalves/eclipse-workspace/desafio/src/main/java/br/com/desafio/web/rest/errors/BadRequestAlertException.java
/Users/alyssonalves/eclipse-workspace/desafio/src/main/java/br/com/desafio/config/audit/package-info.java
/Users/alyssonalves/eclipse-workspace/desafio/src/main/java/br/com/desafio/web/rest/vm/package-info.java
/Users/alyssonalves/eclipse-workspace/desafio/src/main/java/br/com/desafio/web/rest/vm/LoggerVM.java
/Users/alyssonalves/eclipse-workspace/desafio/src/main/java/br/com/desafio/config/JacksonConfiguration.java
/Users/alyssonalves/eclipse-workspace/desafio/src/main/java/br/com/desafio/service/package-info.java
/Users/alyssonalves/eclipse-workspace/desafio/src/main/java/br/com/desafio/DesafioApp.java
/Users/alyssonalves/eclipse-workspace/desafio/src/main/java/br/com/desafio/domain/AbstractAuditingEntity.java
/Users/alyssonalves/eclipse-workspace/desafio/src/main/java/br/com/desafio/config/SecurityConfiguration.java
/Users/alyssonalves/eclipse-workspace/desafio/src/main/java/br/com/desafio/config/Constants.java
/Users/alyssonalves/eclipse-workspace/desafio/src/main/java/br/com/desafio/config/CacheConfiguration.java
/Users/alyssonalves/eclipse-workspace/desafio/src/main/java/br/com/desafio/config/WebConfigurer.java
/Users/alyssonalves/eclipse-workspace/desafio/src/main/java/br/com/desafio/web/rest/errors/CustomParameterizedException.java
/Users/alyssonalves/eclipse-workspace/desafio/src/main/java/br/com/desafio/config/LoggingConfiguration.java
/Users/alyssonalves/eclipse-workspace/desafio/src/main/java/br/com/desafio/web/rest/errors/FieldErrorVM.java
