/Users/alyssonalves/eclipse-workspace/desafio/src/test/java/br/com/desafio/web/rest/util/PaginationUtilUnitTest.java
/Users/alyssonalves/eclipse-workspace/desafio/src/test/java/br/com/desafio/security/jwt/JWTFilterTest.java
/Users/alyssonalves/eclipse-workspace/desafio/src/test/java/br/com/desafio/web/rest/TestUtil.java
/Users/alyssonalves/eclipse-workspace/desafio/src/test/java/br/com/desafio/security/SecurityUtilsUnitTest.java
/Users/alyssonalves/eclipse-workspace/desafio/src/test/java/br/com/desafio/config/WebConfigurerTest.java
/Users/alyssonalves/eclipse-workspace/desafio/src/test/java/br/com/desafio/web/rest/errors/ExceptionTranslatorTestController.java
/Users/alyssonalves/eclipse-workspace/desafio/src/test/java/br/com/desafio/security/jwt/TokenProviderTest.java
/Users/alyssonalves/eclipse-workspace/desafio/src/test/java/br/com/desafio/config/WebConfigurerTestController.java
/Users/alyssonalves/eclipse-workspace/desafio/src/test/java/br/com/desafio/web/rest/errors/ExceptionTranslatorIntTest.java
/Users/alyssonalves/eclipse-workspace/desafio/src/test/java/br/com/desafio/web/rest/LogsResourceIntTest.java
